Jun 13, 2019 7:13:57 PM MyCrawler <init>
INFO: Logger set up!
Jun 13, 2019 7:14:00 PM MyCrawler visitAlbumPage
INFO: VISITED ALBUM: https://www.discogs.com/UHA-The-Psyentist/release/13754474
Jun 13, 2019 7:14:01 PM MyCrawler visitAlbumPage
INFO: VISITED ALBUM: https://www.discogs.com/Enrico-BSJ-Ferrari-People-Gotta-Move/release/13751270
Jun 13, 2019 7:14:02 PM MyCrawler visitAlbumPage
INFO: VISITED ALBUM: https://www.discogs.com/Enertia-Sound-After-Life/release/13749950
Jun 13, 2019 7:14:04 PM MyCrawler visitAlbumPage
INFO: VISITED ALBUM: https://www.discogs.com/Relativ-My-House-Is-Your-House/release/13749845
Jun 13, 2019 7:14:05 PM MyCrawler visitAlbumPage
INFO: VISITED ALBUM: https://www.discogs.com/Sacred-Moai-Road-To-Revolution/release/13748813
Jun 13, 2019 7:14:07 PM MyCrawler visitAlbumPage
INFO: VISITED ALBUM: https://www.discogs.com/Ami-G-x-Sha-9-Feat-Angellina-Skupa-Bo%C4%8Dica/release/13748411
Jun 13, 2019 7:14:08 PM MyCrawler visitAlbumPage
INFO: VISITED ALBUM: https://www.discogs.com/Angellina-Ko-Si-Ti-Ustvari/release/13748334
Jun 13, 2019 7:14:09 PM MyCrawler visitAlbumPage
INFO: VISITED ALBUM: https://www.discogs.com/Angellina-Budi-U-Blizini/release/13748310
Jun 13, 2019 7:14:10 PM MyCrawler visitAlbumPage
INFO: VISITED ALBUM: https://www.discogs.com/Angellina-Potez-Lo%C5%A1/release/13748274
Jun 13, 2019 7:14:11 PM MyCrawler visitAlbumPage
INFO: VISITED ALBUM: https://www.discogs.com/Nevena-Bo%C5%BEovi%C4%87-Kruna/release/13748123
Jun 13, 2019 7:14:12 PM MyCrawler visitAlbumPage
INFO: VISITED ALBUM: https://www.discogs.com/Kandar-Maybe-Someday/master/1562407
Jun 13, 2019 7:14:14 PM MyCrawler visitAlbumPage
INFO: VISITED ALBUM: https://www.discogs.com/Kandar-Maybe-Someday/release/13747002
Jun 13, 2019 7:14:15 PM MyCrawler visitAlbumPage
INFO: VISITED ALBUM: https://www.discogs.com/Stronghold-Guardian-Eastward/release/13746905
Jun 13, 2019 7:14:16 PM MyCrawler visitAlbumPage
INFO: VISITED ALBUM: https://www.discogs.com/David-Mijatovic-Lom01/release/13746246
Jun 13, 2019 7:14:17 PM MyCrawler visitAlbumPage
INFO: VISITED ALBUM: https://www.discogs.com/David-Mijatovic-Why-Your-Eyes-Bleed-Like-That/release/13746182
Jun 13, 2019 7:14:18 PM MyCrawler visitAlbumPage
INFO: VISITED ALBUM: https://www.discogs.com/David-Mijatovic-LOMANIMOL01/release/13746158
Jun 13, 2019 7:14:19 PM MyCrawler visitAlbumPage
INFO: VISITED ALBUM: https://www.discogs.com/David-Mijatovic-00000001-Bedlam-EP/release/13746134
Jun 13, 2019 7:14:20 PM MyCrawler visitAlbumPage
INFO: VISITED ALBUM: https://www.discogs.com/AudioStorm-Power-Brain-EP/release/13744179
Jun 13, 2019 7:14:21 PM MyCrawler visitAlbumPage
INFO: VISITED ALBUM: https://www.discogs.com/Bane-The-Acausal-Fire/master/1562053
Jun 13, 2019 7:14:22 PM MyCrawler visitAlbumPage
INFO: VISITED ALBUM: https://www.discogs.com/C-Da-Afro-Sugar-Love/release/13743873
Jun 13, 2019 7:14:23 PM MyCrawler visitAlbumPage
INFO: VISITED ALBUM: https://www.discogs.com/Mitiko-Dancin-To-Stay-Alive/release/13743856
Jun 13, 2019 7:14:24 PM MyCrawler visitAlbumPage
INFO: VISITED ALBUM: https://www.discogs.com/Belgrade-United-Modular-Dreams/release/13740788
Jun 13, 2019 7:14:25 PM MyCrawler visitAlbumPage
INFO: VISITED ALBUM: https://www.discogs.com/Nata%C5%A1a-Bekvalac-x-Coby-Mala-Plava/release/13739589
Jun 13, 2019 7:14:27 PM MyCrawler visitAlbumPage
INFO: VISITED ALBUM: https://www.discogs.com/Bojana-Vunturi%C5%A1evi%C4%87-Proma%C5%A1aj/release/13739551
Jun 13, 2019 7:14:28 PM MyCrawler visitAlbumPage
INFO: VISITED ALBUM: https://www.discogs.com/Ka%C4%87a-Sotirovi%C4%87-Ft-SevdahBaby-Vrelina/release/13734424
Jun 13, 2019 7:14:29 PM MyCrawler visitAlbumPage
INFO: VISITED ALBUM: https://www.discogs.com/Disciplin-A-Kitschme-Ove-Ruke-Nisu-Male4/release/13733250
Jun 13, 2019 7:14:30 PM MyCrawler visitAlbumPage
INFO: VISITED ALBUM: https://www.discogs.com/Petar-Zorki%C4%87-Riddlephore/release/13733175
Jun 13, 2019 7:14:31 PM MyCrawler visitAlbumPage
INFO: VISITED ALBUM: https://www.discogs.com/Electric-Feel-Promises-Of-Tomorrow/release/13732911
Jun 13, 2019 7:14:32 PM MyCrawler visitAlbumPage
INFO: VISITED ALBUM: https://www.discogs.com/Lokovski-David-Folkebrant-No-Pressure/release/13732196
Jun 13, 2019 7:14:33 PM MyCrawler visitAlbumPage
INFO: VISITED ALBUM: https://www.discogs.com/Darko-Lazi%C4%87-Majko/release/13726868
Jun 13, 2019 7:14:35 PM MyCrawler visitAlbumPage
INFO: VISITED ALBUM: https://www.discogs.com/Indy-Plata-O-Plomo/release/13726793
Jun 13, 2019 7:14:36 PM MyCrawler visitAlbumPage
INFO: VISITED ALBUM: https://www.discogs.com/Tanja-Savi%C4%87-Za-Ljubav-Nisi/release/13726744
Jun 13, 2019 7:14:37 PM MyCrawler visitAlbumPage
INFO: VISITED ALBUM: https://www.discogs.com/Gedrizz-Sistem-D/release/13726272
Jun 13, 2019 7:14:38 PM MyCrawler visitAlbumPage
INFO: VISITED ALBUM: https://www.discogs.com/Ewan-Rill-They-Come-With-Offer-EP/release/13725089
Jun 13, 2019 7:14:39 PM MyCrawler visitAlbumPage
INFO: VISITED ALBUM: https://www.discogs.com/Ewan-Rill-K-Loveski-Elau-Remix-Edition/release/13725045
Jun 13, 2019 7:14:41 PM MyCrawler visitAlbumPage
INFO: VISITED ALBUM: https://www.discogs.com/Juan-Erbin-QAT-Primal-Horde/release/13724823
Jun 13, 2019 7:14:42 PM MyCrawler visitAlbumPage
INFO: VISITED ALBUM: https://www.discogs.com/Mo-Funk-Corridor/release/13720948
Jun 13, 2019 7:14:43 PM MyCrawler visitAlbumPage
INFO: VISITED ALBUM: https://www.discogs.com/Muharem-Serbezovski-Najveci-Hitovi-1/master/1559453
Jun 13, 2019 7:14:44 PM MyCrawler visitAlbumPage
INFO: VISITED ALBUM: https://www.discogs.com/Muharem-Serbezovski-Najveci-Hitovi-2/master/1559452
Jun 13, 2019 7:14:45 PM MyCrawler visitAlbumPage
INFO: VISITED ALBUM: https://www.discogs.com/Julia-Bikova-Ke%C5%A1-Ke%C5%A1/release/13719206
Jun 13, 2019 7:14:46 PM MyCrawler visitAlbumPage
INFO: VISITED ALBUM: https://www.discogs.com/Their-Ferrum-Histriae/release/13718957
